<svg aria-hidden="true" style="position: absolute; width: 0; height: 0; overflow: hidden;" version="1.1" xmlns="http://www.w3.org/2000/svg" xmlns:xlink="http://www.w3.org/1999/xlink">
  <defs>
    <symbol id="social-media-icon-background" viewBox="0 0 300 300">
      <circle cx="150" cy="150" r="150"/>
    </symbol>
    <symbol id="social-media-icon-facebook" viewBox="0 0 300 300">
      <title id="socialMediaIconFacebookTitle">Facebook</title>
      <path d="M214.563 93.24H179.5c-3.997 0-11.689 4.262-11.689 11.308v11.316h35.066V161.1h-35.066v90.482h-46.746V161.1H86v-45.236h35.066V93.24C121.066 70.618 144.44 48 175.255 48h39.308v45.24z"/>
    </symbol>
    <symbol id="social-media-icon-twitter" viewBox="0 0 300 300">
      <title id="socialMediaIconTwitterTitle">Twitter</title>
      <path d="M259.517 87.064c-7.36 3.178-15.237 5.268-23.521 6.248 8.455-4.865 14.926-12.645 18.007-21.902a83.1 83.1 0 0 1-25.977 9.593c-7.498-7.704-18.146-12.475-29.914-12.475-22.61 0-40.964 17.717-40.964 39.61 0 3.088.333 6.105 1.074 8.965-34.021-1.598-64.157-17.407-84.357-41.337-3.547 5.805-5.583 12.636-5.583 19.937 0 13.679 7.24 25.886 18.244 32.945-6.703-.188-13.05-1.952-18.586-4.96v.52c0 19.184 14.154 35.2 32.87 38.857-3.447.873-7.073 1.401-10.783 1.401-2.66 0-5.227-.246-7.715-.761 5.213 15.774 20.315 27.202 38.244 27.533-14.025 10.671-31.671 16.956-50.835 16.956a94.86 94.86 0 0 1-9.778-.52c18.1 11.245 39.636 17.74 62.75 17.74 75.308 0 116.508-60.326 116.508-112.706 0-1.688-.046-3.433-.148-5.103 8.035-5.6 14.973-12.57 20.464-20.541"/>
    </symbol>
    <symbol id="social-media-icon-linkedin" viewBox="0 0 300 300">
      <title id="socialMediaIconLinkedInTitle">LinkedIn</title>
      <path d="M235.985 236H200.1v-56.45c0-13.46-.24-30.788-18.665-30.788-18.69 0-21.55 14.666-21.55 29.809v57.425H124V119.914h34.45v15.864h.482c7.025-12.065 20.086-19.27 33.99-18.752 36.372 0 43.078 24.03 43.078 55.293L235.985 236zM83.504 105c-11.322.002-20.502-9.398-20.504-20.996C62.998 72.406 72.174 63.002 83.496 63c11.322-.002 20.502 9.398 20.504 20.996.001 5.57-2.158 10.912-6.002 14.85-3.844 3.94-9.057 6.153-14.494 6.154zM101 236H66V120h35v116z"/>
    </symbol>
    <symbol id="social-media-icon-youtube" viewBox="0 0 300 300">
      <title id="socialMediaIconYouTubeTitle">YouTube</title>
      <path d="M149.938 79.222s-63.22 0-79.086 4.124c-8.496 2.374-15.492 9.369-17.865 17.99-4.124 15.867-4.124 48.726-4.124 48.726s0 32.985 4.123 48.602c2.375 8.621 9.245 15.492 17.865 17.865 15.992 4.249 79.087 4.249 79.087 4.249s63.344 0 79.21-4.124c8.621-2.374 15.492-9.12 17.74-17.865 4.25-15.742 4.25-48.601 4.25-48.601s.123-32.985-4.25-48.852c-2.249-8.621-9.12-15.491-17.74-17.74-15.866-4.374-79.21-4.374-79.21-4.374zm32.484 70.841l-52.6 30.234v-60.594l52.6 30.36z"/>
    </symbol>
  </defs>
</svg>